%YAML 1.1
%TAG !u! tag:unity3d.com,2011:
--- !u!1045 &1
EditorBuildSettings:
  m_ObjectHideFlags: 0
  serializedVersion: 2
  m_Scenes:
  - enabled: 1
    path: Assets/App/Scenes/Menu.unity
    guid: 955cb0e9acf7a5e478822f35f9a3e717
  - enabled: 1
    path: Assets/App/Scenes/Find.unity
    guid: 8ad15384211906940b851f6808d8f352
  - enabled: 1
    path: Assets/App/Scenes/Game.unity
    guid: 5c42a5c6a7e03ae46983e056d9ca6fa3
  m_configObjects: {}
